M48
; DRILL file {KiCad 5.1.2-f72e74a~84~ubuntu18.04.1} date Sun Jul 21 16:24:52 2019
; FORMAT={-:-/ absolute / inch / decimal}
; #@! TF.CreationDate,2019-07-21T16:24:52+01:00
; #@! TF.GenerationSoftware,Kicad,Pcbnew,5.1.2-f72e74a~84~ubuntu18.04.1
; #@! TF.FileFunction,Plated,1,2,PTH
FMAT,2
INCH
T1C0.0315
T2C0.0394
%
G90
G05
T1
X5.3Y-4.75
X5.3Y-4.55
X5.7Y-4.55
X6.0Y-4.6
X6.1Y-4.6
X6.2Y-4.6
X5.65Y-4.4
X6.05Y-4.4
X5.3Y-4.65
X5.7Y-4.65
X5.7Y-4.75
X5.3Y-4.85
X5.7Y-4.85
X5.3Y-4.95
X5.7Y-4.95
T2
X5.55Y-5.05
X5.85Y-5.05
X5.35Y-4.4
X5.45Y-4.4
X6.05Y-4.85
X6.05Y-4.95
X6.05Y-5.05
X6.15Y-4.85
X6.15Y-4.95
X6.15Y-5.05
X5.15Y-4.45
X5.15Y-4.55
X5.15Y-4.65
X5.15Y-4.75
X5.15Y-4.85
X5.15Y-4.95
X5.15Y-5.05
X5.85Y-4.65
T0
M30
