G04 #@! TF.GenerationSoftware,KiCad,Pcbnew,5.1.2-f72e74a~84~ubuntu18.04.1*
G04 #@! TF.CreationDate,2019-07-21T16:24:48+01:00*
G04 #@! TF.ProjectId,hvprog2,68767072-6f67-4322-9e6b-696361645f70,rev?*
G04 #@! TF.SameCoordinates,Original*
G04 #@! TF.FileFunction,Profile,NP*
%FSLAX46Y46*%
G04 Gerber Fmt 4.6, Leading zero omitted, Abs format (unit mm)*
G04 Created by KiCad (PCBNEW 5.1.2-f72e74a~84~ubuntu18.04.1) date 2019-07-21 16:24:48*
%MOMM*%
%LPD*%
G04 APERTURE LIST*
%ADD10C,0.050000*%
G04 APERTURE END LIST*
D10*
X128524000Y-131572000D02*
X128524000Y-109474000D01*
X159258000Y-131572000D02*
X128524000Y-131572000D01*
X159258000Y-109474000D02*
X159258000Y-131572000D01*
X128524000Y-109474000D02*
X159258000Y-109474000D01*
M02*
